FULL Track List


Enjoy 


00:00:20 - Modig - The Way It Breaks
00:04:13 - Sleeps Everywhere - Extinguish [EMERALD004]
00:09:00 - DisX3 - Stigma [ICR013]
00:14:08 - Milier Avenue - CY-BM V8 [AKKOET]
00:16:48 - DJ Hell - Allerseelen (Jeff Mills Remix)
00:20:54 - Robert Natus - Pain
00:26:02 - Brixton - Fuckass (Robert Natus Remix)
00:30:08 - Gaetano Verdi & Dorian Hunter & Kamil Marc - Damage
00:33:49 - Titanium - Tuxedo (Patrik Skoog Remix)
00:36:25 - Kay D Smith - Person called (Original Mix)